<svg xmlns="http://www.w3.org/2000/svg" viewBox="0 0 24 24">
    <path fill-rule="evenodd" d="m9 7.94.53.53L12 10.94l2.47-2.47.53-.53L16.06 9l-.53.53L13.06 12l2.47 2.47.53.53L15 16.06l-.53-.53L12 13.06l-2.47 2.47-.53.53L7.94 15l.53-.53L10.94 12 8.47 9.53 7.94 9 9 7.94Z" clip-rule="evenodd"/>
</svg>
