<svg xmlns="http://www.w3.org/2000/svg" viewBox="0 0 24 24">
    <path fill-rule="evenodd" d="m14.806 8.977-2.088-3.704L12.001 4l-.717 1.273-2.089 3.704-4.168.841-1.432.29.989 1.075 2.878 3.13-.489 4.225-.167 1.452 1.328-.608 3.867-1.77 3.867 1.77 1.328.608-.167-1.452-.489-4.224 2.878-3.13.99-1.076-1.433-.29-4.169-.84Zm3.18 1.917-3.427-.691-.56-.113-.282-.499-1.716-3.045-1.717 3.045-.28.499-.561.113-3.427.691 2.366 2.574.387.421-.066.568-.401 3.473 3.179-1.455.52-.238.52.238L15.7 17.93l-.401-3.473-.066-.568.387-.421 2.366-2.574Z" clip-rule="evenodd"/>
</svg>
