<svg xmlns="http://www.w3.org/2000/svg" viewBox="0 0 24 24">
    <path fill-rule="evenodd" d="M8.22 3.707c-1.712 0-3.146.546-4.15 1.595-1 1.044-1.494 2.502-1.494 4.175 0 1.197.493 2.447 1.348 3.585 1.25 1.662 3.143 3.438 4.693 4.78a63.956 63.956 0 0 0 2.765 2.256l.044.033.012.009.003.002v.001h.001l.451-.599-.45.6.45.339.452-.34-.452-.599.452.6v-.001l.004-.003.012-.009.043-.033.166-.127a64.043 64.043 0 0 0 2.597-2.129c1.55-1.341 3.441-3.117 4.69-4.779.857-1.138 1.349-2.388 1.349-3.585 0-1.673-.494-3.131-1.494-4.175-1.004-1.049-2.438-1.595-4.149-1.595-1.548 0-2.698.724-3.67 1.675-.973-.951-2.126-1.676-3.674-1.676Z" clip-rule="evenodd"/>
</svg>
