<svg xmlns="http://www.w3.org/2000/svg" viewBox="0 0 24 24">
    <path fill-rule="evenodd" d="m7.606 9.31 5.391-5.39-1.06-1.062L6.015 8.78l-.15.15-.049.206-1.596 6.702-2.48 2.482-.68.679.824.494 3.29 1.974.502.301.414-.414 1.824-1.823 6.701-1.596.207-.05.15-.15 5.921-5.92-1.06-1.061-5.391 5.39-3.417-3.417L7.606 9.31Zm5.355 7.476-2.998-2.998-2.999-2.998-1.236 5.194 2.039 2.04 5.194-1.238Zm-6.49 2.064-1.57-1.571-1.422 1.422 1.964 1.178 1.029-1.029Z" clip-rule="evenodd"/>
</svg>
