<svg xmlns="http://www.w3.org/2000/svg" viewBox="0 0 24 24">
    <path fill-rule="evenodd" d="M4.5 7a1.5 1.5 0 1 0 0-3 1.5 1.5 0 0 0 0 3ZM21 4.75H9v1.5h12v-1.5ZM4.5 13.5a1.5 1.5 0 1 0 0-3 1.5 1.5 0 0 0 0 3ZM21 11.25H9v1.5h12v-1.5ZM6 18.5a1.5 1.5 0 1 1-3 0 1.5 1.5 0 0 1 3 0Zm3-.75h12v1.5H9v-1.5Z" clip-rule="evenodd"/>
</svg>
