<svg xmlns="http://www.w3.org/2000/svg" viewBox="0 0 24 24">
    <path fill-rule="evenodd" d="M9.058 2.518H8.52l-.172.51-.808 2.389H2.917v1.5h1.71l.791 13.46.042.706h13.08l.041-.706.792-13.46h1.71v-1.5H16.46l-.808-2.39-.173-.51H9.058Zm5.82 2.899-.474-1.4H9.596l-.473 1.4h5.755ZM6.874 19.583 6.13 6.917h11.743l-.745 12.666H6.873Zm2.702-3.618v-5.43h1.5v5.43h-1.5Zm3.348-5.43v5.43h1.5v-5.43h-1.5Z" clip-rule="evenodd"/>
</svg>
