<svg xmlns="http://www.w3.org/2000/svg" viewBox="0 0 24 24">
    <path fill-rule="evenodd" d="m12 1.899.654 1.16 2.553 4.528 5.096 1.028 1.304.264-.9.98-3.519 3.827.597 5.164.153 1.322-1.21-.554L12 17.455l-4.727 2.163-1.21.554.153-1.322.597-5.164-3.519-3.828-.9-.98 1.304-.263 5.096-1.028 2.553-4.529.653-1.16Zm0 3.055L9.932 8.623l-.168.299-.337.068-4.128.833 2.85 3.1.233.253-.04.34-.483 4.185 3.83-1.753.311-.143.313.143 3.829 1.753-.483-4.184-.04-.341.232-.253 2.85-3.1-4.128-.833-.336-.068-.169-.3L12 4.955Z" clip-rule="evenodd"/>
</svg>
