<svg width="80" height="80" viewBox="0 0 80 80" fill="none" xmlns="http://www.w3.org/2000/svg">
<g clip-path="url(#clip0_10715_64319)">
<rect width="80" height="80" rx="40" fill="#D2CDD9"/>
<g clip-path="url(#clip1_10715_64319)">
<g filter="url(#filter0_d_10715_64319)">
<path fill-rule="evenodd" clip-rule="evenodd" d="M11.0124 69.1151C17.2237 78.4993 27.8751 84.6875 39.9556 84.6875C52.05 84.6875 62.7014 78.49 68.8619 69.0642C70.7581 66.2523 71.3039 62.7419 70.3558 59.4859C69.4076 56.2206 67.0581 53.5474 63.9362 52.1922C63.9178 52.183 63.8992 52.1738 63.8807 52.1645C56.8369 49.3201 48.6645 47.6875 39.9556 47.6875C31.2514 47.6875 23.0882 49.3201 16.0259 52.0998C15.9981 52.109 15.975 52.1229 15.9473 52.1321C12.8115 53.4965 10.4481 56.1836 9.49538 59.4674C8.54263 62.7511 9.09762 66.2846 11.0124 69.1151ZM39.9556 15.3125C31.6722 15.3125 24.9429 22.0419 24.9429 30.3253C24.9429 38.6133 31.6722 45.338 39.9556 45.338C48.2436 45.338 54.9684 38.6133 54.9684 30.3253C54.9684 22.0419 48.2436 15.3125 39.9556 15.3125Z" fill="white"/>
</g>
</g>
</g>
<defs>
<filter id="filter0_d_10715_64319" x="-2.96094" y="3.3125" width="85.7734" height="93.375" filterUnits="userSpaceOnUse" color-interpolation-filters="sRGB">
<feFlood flood-opacity="0" result="BackgroundImageFix"/>
<feColorMatrix in="SourceAlpha" type="matrix" values="0 0 0 0 0 0 0 0 0 0 0 0 0 0 0 0 0 0 127 0" result="hardAlpha"/>
<feOffset/>
<feGaussianBlur stdDeviation="6"/>
<feComposite in2="hardAlpha" operator="out"/>
<feColorMatrix type="matrix" values="0 0 0 0 0 0 0 0 0 0 0 0 0 0 0 0 0 0 0.04 0"/>
<feBlend mode="normal" in2="BackgroundImageFix" result="effect1_dropShadow_10715_64319"/>
<feBlend mode="normal" in="SourceGraphic" in2="effect1_dropShadow_10715_64319" result="shape"/>
</filter>
<clipPath id="clip0_10715_64319">
<rect width="80" height="80" rx="40" fill="white"/>
</clipPath>
<clipPath id="clip1_10715_64319">
<rect width="74" height="74" fill="white" transform="translate(3 13)"/>
</clipPath>
</defs>
</svg>
